<svg xmlns="http://www.w3.org/2000/svg" xmlns:xlink="http://www.w3.org/1999/xlink" width="24" height="24" viewBox="0 0 24 24">
  <defs>
    <path id="ic_api_config-a" d="M18.1163426,8.18775135 C19.0881447,9.60609412 19.6566757,11.3224844 19.6566757,13.1716621 C19.6566757,18.0474185 15.7040942,22 10.8283379,22 C5.9525815,22 2,18.0474185 2,13.1716621 C2,8.29590575 5.9525815,4.34332425 10.8283379,4.34332425 C12.6772975,4.34332425 14.393501,4.91172116 15.8117467,5.88331351 L12.773449,8.9951833 C12.1825323,8.71950599 11.5234147,8.56554647 10.8283379,8.56554647 C8.28445044,8.56554647 6.22222222,10.6277747 6.22222222,13.1716621 C6.22222222,15.7155496 8.28445044,17.7777778 10.8283379,17.7777778 C13.3722253,17.7777778 15.4344535,15.7155496 15.4344535,13.1716621 C15.4344535,12.4979028 15.2897929,11.8579309 15.0298368,11.2811115 L18.1163426,8.18775135 Z M18.5346564,6.68627613 L13.0995125,12.1214201 C13.250611,12.4397695 13.3351499,12.7958432 13.3351499,13.1716621 C13.3351499,14.5260389 12.2372106,15.6239782 10.8828338,15.6239782 C9.52845702,15.6239782 8.43051771,14.5260389 8.43051771,13.1716621 C8.43051771,11.8172854 9.52845702,10.719346 10.8828338,10.719346 C11.2846638,10.719346 11.6639208,10.8159921 11.9986283,10.9873074 L17.3820268,5.60390886 C17.1990622,5.26054652 17.0953678,4.86854086 17.0953678,4.45231608 C17.0953678,3.09793931 18.1933072,2 19.5476839,2 C20.9020607,2 22,3.09793931 22,4.45231608 C22,5.80669285 20.9020607,6.90463215 19.5476839,6.90463215 C19.1864427,6.90463215 18.8434444,6.82652441 18.5346564,6.68627613 Z"/>
  </defs>
  <use fill-rule="evenodd" xlink:href="#ic_api_config-a"/>
</svg>
