<svg xmlns="http://www.w3.org/2000/svg" xmlns:xlink="http://www.w3.org/1999/xlink" width="24" height="24" viewBox="0 0 24 24">
  <defs>
    <path id="ic_brightness_2-a" d="M10,2 C8.18,2 6.47,2.5 5,3.35 C7.99,5.08 10,8.3 10,12 C10,15.7 7.99,18.92 5,20.65 C6.47,21.5 8.18,22 10,22 C15.52,22 20,17.52 20,12 C20,6.48 15.52,2 10,2 L10,2 Z"/>
  </defs>
  <use fill-rule="evenodd" xlink:href="#ic_brightness_2-a"/>
</svg>
