<svg xmlns="http://www.w3.org/2000/svg" xmlns:xlink="http://www.w3.org/1999/xlink" width="24" height="24" viewBox="0 0 24 24">
  <defs>
    <path id="ic_border_vertical-a" d="M3,9 L5,9 L5,7 L3,7 L3,9 L3,9 Z M3,5 L5,5 L5,3 L3,3 L3,5 L3,5 Z M7,21 L9,21 L9,19 L7,19 L7,21 L7,21 Z M7,13 L9,13 L9,11 L7,11 L7,13 L7,13 Z M3,13 L5,13 L5,11 L3,11 L3,13 L3,13 Z M3,21 L5,21 L5,19 L3,19 L3,21 L3,21 Z M3,17 L5,17 L5,15 L3,15 L3,17 L3,17 Z M7,5 L9,5 L9,3 L7,3 L7,5 L7,5 Z M19,17 L21,17 L21,15 L19,15 L19,17 L19,17 Z M11,21 L13,21 L13,3 L11,3 L11,21 L11,21 Z M19,21 L21,21 L21,19 L19,19 L19,21 L19,21 Z M19,13 L21,13 L21,11 L19,11 L19,13 L19,13 Z M19,3 L19,5 L21,5 L21,3 L19,3 L19,3 Z M19,9 L21,9 L21,7 L19,7 L19,9 L19,9 Z M15,5 L17,5 L17,3 L15,3 L15,5 L15,5 Z M15,21 L17,21 L17,19 L15,19 L15,21 L15,21 Z M15,13 L17,13 L17,11 L15,11 L15,13 L15,13 Z"/>
  </defs>
  <use fill-rule="evenodd" xlink:href="#ic_border_vertical-a"/>
</svg>
