<svg xmlns="http://www.w3.org/2000/svg" xmlns:xlink="http://www.w3.org/1999/xlink" width="24" height="24" viewBox="0 0 24 24">
  <defs>
    <path id="ic_cloud_circle-a" d="M12,2 C6.48,2 2,6.48 2,12 C2,17.52 6.48,22 12,22 C17.52,22 22,17.52 22,12 C22,6.48 17.52,2 12,2 L12,2 Z M16.5,16 L8,16 C6.34,16 5,14.66 5,13 C5,11.34 6.34,10 8,10 L8.14,10.01 C8.58,8.28 10.13,7 12,7 C14.21,7 16,8.79 16,11 L16.5,11 C17.88,11 19,12.12 19,13.5 C19,14.88 17.88,16 16.5,16 L16.5,16 Z"/>
  </defs>
  <use fill-rule="evenodd" xlink:href="#ic_cloud_circle-a"/>
</svg>
