<svg xmlns="http://www.w3.org/2000/svg" xmlns:xlink="http://www.w3.org/1999/xlink" width="24" height="24" viewBox="0 0 24 24">
  <defs>
    <path id="ic_clear_all-a" d="M5,13 L19,13 L19,11 L5,11 L5,13 L5,13 Z M3,17 L17,17 L17,15 L3,15 L3,17 L3,17 Z M7,7 L7,9 L21,9 L21,7 L7,7 L7,7 Z"/>
  </defs>
  <use fill-rule="evenodd" xlink:href="#ic_clear_all-a"/>
</svg>
