<svg xmlns="http://www.w3.org/2000/svg" xmlns:xlink="http://www.w3.org/1999/xlink" width="24" height="24" viewBox="0 0 24 24">
  <defs>
    <path id="ic_compress-menu-a" d="M14.2473,9.7259 L6.0411,9.7259 L8.0553,11.741 L6.9321,12.8642 L3,8.9321 L6.9321,5 L8.0553,6.1232 L6.0411,8.1374 L14.2473,8.1374 L14.2473,9.7259 Z M9.48,12.90416 L21,12.90416 L21,14.49311 L9.48,14.49311 L9.48,12.90416 Z M9.48,17.67101 L21,17.67101 L21,19.26005 L9.48,19.26005 L9.48,17.67101 Z"/>
  </defs>
  <use fill-rule="evenodd" xlink:href="#ic_compress-menu-a"/>
</svg>
