<svg xmlns="http://www.w3.org/2000/svg" xmlns:xlink="http://www.w3.org/1999/xlink" width="24" height="24" viewBox="0 0 24 24">
  <defs>
    <path id="ic_compare_arrows-a" d="M9.01,14 L2,14 L2,16 L9.01,16 L9.01,19 L13,15 L9.01,11 L9.01,14 L9.01,14 Z M14.99,13 L14.99,10 L22,10 L22,8 L14.99,8 L14.99,5 L11,9 L14.99,13 L14.99,13 Z"/>
  </defs>
  <use fill-rule="evenodd" xlink:href="#ic_compare_arrows-a"/>
</svg>
