<svg xmlns="http://www.w3.org/2000/svg" xmlns:xlink="http://www.w3.org/1999/xlink" width="24" height="24" viewBox="0 0 24 24">
  <defs>
    <path id="ic_content_duplicate-a" d="M19,5 C20.1,5 21,5.9 21,7 L21,7 L21,21 C21,22.1 20.1,23 19,23 L19,23 L8,23 C6.9,23 6,22.1 6,21 L6,21 L6,17.0633892 L8,17.0633892 L8,21 L19,21 L19,7 L8,7 L8,11.8519938 L6,11.8519938 L6,7 C6,5.9 6.9,5 8,5 L8,5 Z M11.801,11 L16,14.5 L11.801,18 L11.801,15.5694444 L5,15.5694444 L5,13.4305556 L11.801,13.4305556 L11.801,11 Z M16,1 L16,3 L4,3 L4,17 L2,17 L2,3 C2,1.95 2.82004132,1.0822314 3.85130541,1.00551277 L4,1 L16,1 Z"/>
  </defs>
  <use fill-rule="evenodd" xlink:href="#ic_content_duplicate-a"/>
</svg>
