<svg xmlns="http://www.w3.org/2000/svg" xmlns:xlink="http://www.w3.org/1999/xlink" width="24" height="24" viewBox="0 0 24 24">
  <defs>
    <path id="ic_cluster-a" d="M18.5,2 C20.425,2 22,3.575 22,5.5 C22,7.425 20.425,9 18.5,9 C17.8008769,9 17.1479189,8.79225701 16.599808,8.43545301 L12.2902745,12.7322722 C12.7374245,13.3778306 13,14.1597403 13,15 C13,15.3931159 12.9425264,15.77346 12.8355669,16.1330444 L15.3788816,16.9208917 C15.9585347,15.7835914 17.1422016,15 18.5,15 C20.425,15 22,16.575 22,18.5 C22,20.425 20.425,22 18.5,22 C16.575,22 15,20.425 15,18.5 C15,18.4208156 15.002665,18.3422234 15.0079098,18.2643087 L12.2284171,17.3545589 C11.4990293,18.3503296 10.3217002,19 9,19 C8.14978355,19 7.35930826,18.7311648 6.70938103,18.2743013 L5.80417607,19.1394245 C5.92962315,19.4004393 6,19.6924 6,20 C6,21.1 5.1,22 4,22 C2.9,22 2,21.1 2,20 C2,18.9 2.9,18 4,18 C4.24407407,18 4.47830151,18.0443099 4.69503542,18.1252827 L5.66274198,17.1983681 C5.24423892,16.5665039 5,15.8103896 5,15 C5,13.617316 5.71100558,12.3926333 6.78545753,11.673511 L5.46002956,7.96453558 C5.30997492,7.98788083 5.15633403,8 5,8 C3.35,8 2,6.65 2,5 C2,3.35 3.35,2 5,2 C6.65,2 8,3.35 8,5 C8,6.01727059 7.48685647,6.92050929 6.70663275,7.46365274 L8.0142326,11.1237042 C8.32983543,11.0429551 8.66014493,11 9,11 C9.82034632,11 10.5850754,11.2502774 11.2216016,11.6782464 L15.5454286,7.37049836 C15.200333,6.82856434 15,6.18654139 15,5.5 C15,3.575 16.575,2 18.5,2 Z M18.5,17 C17.675,17 17,17.675 17,18.5 C17,19.325 17.675,20 18.5,20 C19.325,20 20,19.325 20,18.5 C20,17.675 19.325,17 18.5,17 Z M9,13 C7.9,13 7,13.9 7,15 C7,16.1 7.9,17 9,17 C10.1,17 11,16.1 11,15 C11,13.9 10.1,13 9,13 Z M5,4 C4.45,4 4,4.45 4,5 C4,5.55 4.45,6 5,6 C5.55,6 6,5.55 6,5 C6,4.45 5.55,4 5,4 Z"/>
  </defs>
  <use fill-rule="evenodd" xlink:href="#ic_cluster-a"/>
</svg>
