<svg xmlns="http://www.w3.org/2000/svg" xmlns:xlink="http://www.w3.org/1999/xlink" width="24" height="24" viewBox="0 0 24 24">
  <defs>
    <path id="ic_delete_cancel-a" d="M19.1693489,3 L21,4.83065106 L4.83065106,21 L3,19.1693489 L19.1693489,3 Z M18,10.2418978 L18,19 C18,20.05 17.1799587,20.9177686 16.1486946,20.9944872 L16,21 L8,21 C7.77333333,21 7.55515886,20.9617851 7.35160126,20.89148 L18,10.2418978 Z M12.7568978,6.99989777 L5.99989777,13.7568978 L5.99989777,6.99989777 L12.7568978,6.99989777 Z M14.5,3 L15.5,4 L15.7568978,3.99989777 L13.7568978,5.99989777 L5,6 L5,4 L8.5,4 L9.5,3 L14.5,3 Z"/>
  </defs>
  <use fill-rule="evenodd" xlink:href="#ic_delete_cancel-a"/>
</svg>
