<svg xmlns="http://www.w3.org/2000/svg" xmlns:xlink="http://www.w3.org/1999/xlink" width="24" height="24" viewBox="0 0 24 24">
  <defs>
    <path id="ic_drag_handle-a" d="M20,9 L4,9 L4,11 L20,11 L20,9 L20,9 Z M4,15 L20,15 L20,13 L4,13 L4,15 L4,15 Z"/>
  </defs>
  <use fill-rule="evenodd" xlink:href="#ic_drag_handle-a"/>
</svg>
