<svg xmlns="http://www.w3.org/2000/svg" xmlns:xlink="http://www.w3.org/1999/xlink" width="24" height="24" viewBox="0 0 24 24">
  <defs>
    <path id="ic_drafts-a" d="M21.99,8 C21.99,7.28 21.62,6.65 21.05,6.3 L12,1 L2.95,6.3 C2.38,6.65 2,7.28 2,8 L2,18 C2,19.1 2.9,20 4,20 L20,20 C21.1,20 22,19.1 22,18 L21.99,8 L21.99,8 Z M12,13 L3.74,7.84 L12,3 L20.26,7.84 L12,13 L12,13 Z"/>
  </defs>
  <use fill-rule="evenodd" xlink:href="#ic_drafts-a"/>
</svg>
