<svg xmlns="http://www.w3.org/2000/svg" xmlns:xlink="http://www.w3.org/1999/xlink" width="24" height="24" viewBox="0 0 24 24">
  <defs>
    <path id="ic_equalizer-a" d="M10,20 L14,20 L14,4 L10,4 L10,20 L10,20 Z M4,20 L8,20 L8,12 L4,12 L4,20 L4,20 Z M16,9 L16,20 L20,20 L20,9 L16,9 L16,9 Z"/>
  </defs>
  <use fill-rule="evenodd" xlink:href="#ic_equalizer-a"/>
</svg>
