<svg xmlns="http://www.w3.org/2000/svg" xmlns:xlink="http://www.w3.org/1999/xlink" width="24" height="24" viewBox="0 0 24 24">
  <defs>
    <path id="ic_edit_properties-a" d="M3,17.25 L3,21 L6.75,21 L17.81,9.94 L14.06,6.19 L3,17.25 L3,17.25 Z M20.71,7.04 L18.88,8.87 L15.13,5.12 L16.96,3.29 C17.35,2.9 17.98,2.9 18.37,3.29 L20.71,5.63 C21.1,6.02 21.1,6.65 20.71,7.04 Z M3,3 L14,3 L11,6 L3,6 L3,3 Z M3,8 L10,8 L7,11 L3,11 L3,8 Z"/>
  </defs>
  <use fill-rule="evenodd" xlink:href="#ic_edit_properties-a"/>
</svg>
