<svg xmlns="http://www.w3.org/2000/svg" xmlns:xlink="http://www.w3.org/1999/xlink" width="24" height="24" viewBox="0 0 24 24">
  <defs>
    <path id="ic_export_alt-a" d="M12.25,1 L15.25,4.69230769 L13,4.69230769 L13,13 L11.5,13 L11.5,4.69230769 L9.25,4.69230769 L12.25,1 L12.25,1 Z M19.2045455,7.5 L14.5681818,7.5 L14.5681818,9.26888889 L19.2045455,9.26888889 L19.2045455,21.74 L5.29545455,21.74 L5.29545455,9.26888889 L9.93181818,9.26888889 L9.93181818,7.5 L5.29545455,7.5 C4.44545455,7.5 3.75,8.3 3.75,9.27777778 L3.75,21.7222222 C3.75,22.7 4.44545455,23.5 5.29545455,23.5 L19.2045455,23.5 C20.0545455,23.5 20.75,22.7 20.75,21.7222222 L20.75,9.27777778 C20.75,8.3 20.0545455,7.5 19.2045455,7.5 L19.2045455,7.5 Z"/>
  </defs>
  <use fill-rule="evenodd" transform="rotate(90 12.25 12.25)" xlink:href="#ic_export_alt-a"/>
</svg>
