<svg xmlns="http://www.w3.org/2000/svg" xmlns:xlink="http://www.w3.org/1999/xlink" width="24" height="24" viewBox="0 0 24 24">
  <defs>
    <path id="ic_flare-a" d="M7,11 L1,11 L1,13 L7,13 L7,11 L7,11 Z M9.17,7.76 L7.05,5.64 L5.64,7.05 L7.76,9.17 L9.17,7.76 L9.17,7.76 Z M13,1 L11,1 L11,7 L13,7 L13,1 L13,1 Z M18.36,7.05 L16.95,5.64 L14.83,7.76 L16.24,9.17 L18.36,7.05 L18.36,7.05 Z M17,11 L17,13 L23,13 L23,11 L17,11 L17,11 Z M12,9 C10.34,9 9,10.34 9,12 C9,13.66 10.34,15 12,15 C13.66,15 15,13.66 15,12 C15,10.34 13.66,9 12,9 L12,9 Z M14.83,16.24 L16.95,18.36 L18.36,16.95 L16.24,14.83 L14.83,16.24 L14.83,16.24 Z M5.64,16.95 L7.05,18.36 L9.17,16.24 L7.76,14.83 L5.64,16.95 L5.64,16.95 Z M11,23 L13,23 L13,17 L11,17 L11,23 L11,23 Z"/>
  </defs>
  <use fill-rule="evenodd" xlink:href="#ic_flare-a"/>
</svg>
