<svg xmlns="http://www.w3.org/2000/svg" xmlns:xlink="http://www.w3.org/1999/xlink" width="24" height="24" viewBox="0 0 24 24">
  <defs>
    <path id="ic_format_align_center-a" d="M7,15 L7,17 L17,17 L17,15 L7,15 L7,15 Z M3,21 L21,21 L21,19 L3,19 L3,21 L3,21 Z M3,13 L21,13 L21,11 L3,11 L3,13 L3,13 Z M7,7 L7,9 L17,9 L17,7 L7,7 L7,7 Z M3,3 L3,5 L21,5 L21,3 L3,3 L3,3 Z"/>
  </defs>
  <use fill-rule="evenodd" xlink:href="#ic_format_align_center-a"/>
</svg>
