<svg xmlns="http://www.w3.org/2000/svg" xmlns:xlink="http://www.w3.org/1999/xlink" width="24" height="24" viewBox="0 0 24 24">
  <defs>
    <path id="ic_feedback-a" d="M20,2 L4,2 C2.9,2 2.01,2.9 2.01,4 L2,22 L6,18 L20,18 C21.1,18 22,17.1 22,16 L22,4 C22,2.9 21.1,2 20,2 L20,2 Z M13,14 L11,14 L11,12 L13,12 L13,14 L13,14 Z M13,10 L11,10 L11,6 L13,6 L13,10 L13,10 Z"/>
  </defs>
  <use fill-rule="evenodd" xlink:href="#ic_feedback-a"/>
</svg>
