<svg xmlns="http://www.w3.org/2000/svg" xmlns:xlink="http://www.w3.org/1999/xlink" width="24" height="24" viewBox="0 0 24 24">
  <defs>
    <path id="ic_hide_code-a" d="M6.9473645,7.2173645 L3,3.27 L4.27,2 L22,19.73 L20.73,21 L8.34693535,8.61693535 L4.8,12 L9.4,16.6 L8,18 L2,12 L6.9473645,7.2173645 Z M19.2,12 L14.6,7.4 L16,6 L22,12 L18.8516099,15.145576 L17.4516099,13.745576 L19.2,12 Z M15.0333544,16.1666456 L16.4271393,17.5633545 L16,18 L14.6,16.6 L15.0333544,16.1666456 Z"/>
  </defs>
  <use fill-rule="evenodd" xlink:href="#ic_hide_code-a"/>
</svg>
