<svg xmlns="http://www.w3.org/2000/svg" xmlns:xlink="http://www.w3.org/1999/xlink" width="24" height="24" viewBox="0 0 24 24">
  <defs>
    <path id="ic_headset-a" d="M12,1 C7.03,1 3,5.03 3,10 L3,17 C3,18.66 4.34,20 6,20 L9,20 L9,12 L5,12 L5,10 C5,6.13 8.13,3 12,3 C15.87,3 19,6.13 19,10 L19,12 L15,12 L15,20 L18,20 C19.66,20 21,18.66 21,17 L21,10 C21,5.03 16.97,1 12,1 L12,1 Z"/>
  </defs>
  <use fill-rule="evenodd" xlink:href="#ic_headset-a"/>
</svg>
