<svg xmlns="http://www.w3.org/2000/svg" xmlns:xlink="http://www.w3.org/1999/xlink" width="24" height="24" viewBox="0 0 24 24">
  <defs>
    <polygon id="ic_keyboard_arrow_up-a" points="7.41 15.41 12 10.83 16.59 15.41 18 14 12 8 6 14"/>
  </defs>
  <use fill-rule="evenodd" xlink:href="#ic_keyboard_arrow_up-a"/>
</svg>
