<svg xmlns="http://www.w3.org/2000/svg" xmlns:xlink="http://www.w3.org/1999/xlink" width="24" height="24" viewBox="0 0 24 24">
  <defs>
    <path id="ic_looks_two-a" d="M19,3 L5,3 C3.9,3 3,3.9 3,5 L3,19 C3,20.1 3.9,21 5,21 L19,21 C20.1,21 21,20.1 21,19 L21,5 C21,3.9 20.1,3 19,3 L19,3 Z M15,11 C15,12.11 14.1,13 13,13 L11,13 L11,15 L15,15 L15,17 L9,17 L9,13 C9,11.89 9.9,11 11,11 L13,11 L13,9 L9,9 L9,7 L13,7 C14.1,7 15,7.89 15,9 L15,11 L15,11 Z"/>
  </defs>
  <use fill-rule="evenodd" xlink:href="#ic_looks_two-a"/>
</svg>
