<svg xmlns="http://www.w3.org/2000/svg" xmlns:xlink="http://www.w3.org/1999/xlink" width="24" height="24" viewBox="0 0 24 24">
  <defs>
    <path id="ic_no_sim-a" d="M18.99,5 C18.99,3.9 18.1,3 17,3 L10,3 L7.66,5.34 L19,16.68 L18.99,5 L18.99,5 Z M3.65,3.88 L2.38,5.15 L5,7.77 L5,19 C5,20.1 5.9,21 7,21 L17.01,21 C17.36,21 17.68,20.9 17.97,20.74 L19.85,22.62 L21.12,21.35 L3.65,3.88 L3.65,3.88 Z"/>
  </defs>
  <use fill-rule="evenodd" xlink:href="#ic_no_sim-a"/>
</svg>
