<svg xmlns="http://www.w3.org/2000/svg" xmlns:xlink="http://www.w3.org/1999/xlink" width="24" height="24" viewBox="0 0 24 24">
  <defs>
    <polygon id="ic_play_arrow-a" points="8 5 8 19 19 12"/>
  </defs>
  <use fill-rule="evenodd" xlink:href="#ic_play_arrow-a"/>
</svg>
