<svg xmlns="http://www.w3.org/2000/svg" xmlns:xlink="http://www.w3.org/1999/xlink" width="24" height="24" viewBox="0 0 24 24">
  <defs>
    <path id="ic_pause-a" d="M6,19 L10,19 L10,5 L6,5 L6,19 L6,19 Z M14,5 L14,19 L18,19 L18,5 L14,5 L14,5 Z"/>
  </defs>
  <use fill-rule="evenodd" xlink:href="#ic_pause-a"/>
</svg>
