<svg xmlns="http://www.w3.org/2000/svg" xmlns:xlink="http://www.w3.org/1999/xlink" width="24" height="24" viewBox="0 0 24 24">
  <defs>
    <path id="ic_queue_music-a" d="M15,6 L3,6 L3,8 L15,8 L15,6 L15,6 Z M15,10 L3,10 L3,12 L15,12 L15,10 L15,10 Z M3,16 L11,16 L11,14 L3,14 L3,16 L3,16 Z M17,6 L17,14.18 C16.69,14.07 16.35,14 16,14 C14.34,14 13,15.34 13,17 C13,18.66 14.34,20 16,20 C17.66,20 19,18.66 19,17 L19,8 L22,8 L22,6 L17,6 L17,6 Z"/>
  </defs>
  <use fill-rule="evenodd" xlink:href="#ic_queue_music-a"/>
</svg>
