<svg xmlns="http://www.w3.org/2000/svg" xmlns:xlink="http://www.w3.org/1999/xlink" width="24" height="24" viewBox="0 0 24 24">
  <defs>
    <path id="ic_slideshow-a" d="M10,8 L10,16 L15,12 L10,8 L10,8 Z M19,3 L5,3 C3.9,3 3,3.9 3,5 L3,19 C3,20.1 3.9,21 5,21 L19,21 C20.1,21 21,20.1 21,19 L21,5 C21,3.9 20.1,3 19,3 L19,3 Z M19,19 L5,19 L5,5 L19,5 L19,19 L19,19 Z"/>
  </defs>
  <use fill-rule="evenodd" xlink:href="#ic_slideshow-a"/>
</svg>
