<svg xmlns="http://www.w3.org/2000/svg" xmlns:xlink="http://www.w3.org/1999/xlink" width="24" height="24" viewBox="0 0 24 24">
  <defs>
    <path id="ic_step-a" d="M9.69230769,2 L14.3076923,2 C18.5560365,2 22,5.44396346 22,9.69230769 L22,14.3076923 C22,18.5560365 18.5560365,22 14.3076923,22 L9.69230769,22 C5.44396346,22 2,18.5560365 2,14.3076923 L2,9.69230769 C2,5.44396346 5.44396346,2 9.69230769,2 Z M9.60230725,4.007692 C6.51248657,4.007692 4.007692,6.51248657 4.007692,9.60230725 L4.007692,14.3976917 C4.007692,17.4875124 6.51248657,19.992307 9.60230725,19.992307 L14.3976917,19.992307 C17.4875124,19.992307 19.992307,17.4875124 19.992307,14.3976917 L19.992307,9.60230725 C19.992307,6.51248657 17.4875124,4.007692 14.3976917,4.007692 L9.60230725,4.007692 Z M10.3374774,6.61538462 L15.7015381,11.9794454 L10.3374774,17.3435062 L9.07692308,16.0829519 L13.1714895,11.9794454 L9.07692308,7.8759389 L10.3374774,6.61538462 Z"/>
  </defs>
  <use xlink:href="#ic_step-a"/>
</svg>
