<svg xmlns="http://www.w3.org/2000/svg" xmlns:xlink="http://www.w3.org/1999/xlink" width="24" height="24" viewBox="0 0 24 24">
  <defs>
    <path id="ic_shop-a" d="M16,6 L16,4 C16,2.89 15.11,2 14,2 L10,2 C8.89,2 8,2.89 8,4 L8,6 L2,6 L2,19 C2,20.11 2.89,21 4,21 L20,21 C21.11,21 22,20.11 22,19 L22,6 L16,6 L16,6 Z M10,4 L14,4 L14,6 L10,6 L10,4 L10,4 Z M9,18 L9,9 L16.5,13 L9,18 L9,18 Z"/>
  </defs>
  <use fill-rule="evenodd" xlink:href="#ic_shop-a"/>
</svg>
