<svg xmlns="http://www.w3.org/2000/svg" xmlns:xlink="http://www.w3.org/1999/xlink" width="24" height="24" viewBox="0 0 24 24">
  <defs>
    <circle id="ic_status_dot-a" cx="12" cy="12" r="6"/>
  </defs>
  <use fill-rule="evenodd" xlink:href="#ic_status_dot-a"/>
</svg>
