<svg xmlns="http://www.w3.org/2000/svg" xmlns:xlink="http://www.w3.org/1999/xlink" width="24" height="24" viewBox="0 0 24 24">
  <defs>
    <path id="ic_satellite-a" d="M19,3 L5,3 C3.9,3 3,3.9 3,5 L3,19 C3,20.1 3.9,21 5,21 L19,21 C20.1,21 21,20.1 21,19 L21,5 C21,3.9 20.1,3 19,3 L19,3 Z M5,4.99 L8,4.99 C8,6.65 6.66,8 5,8 L5,4.99 L5,4.99 Z M5,12 L5,10 C7.76,10 10,7.75 10,4.99 L12,4.99 C12,8.86 8.87,12 5,12 L5,12 Z M5,18 L8.5,13.5 L11,16.51 L14.5,12 L19,18 L5,18 L5,18 Z"/>
  </defs>
  <use fill-rule="evenodd" xlink:href="#ic_satellite-a"/>
</svg>
