<svg xmlns="http://www.w3.org/2000/svg" xmlns:xlink="http://www.w3.org/1999/xlink" width="24" height="24" viewBox="0 0 24 24">
  <defs>
    <path id="ic_users-a" d="M16.3636364,11.4285714 C18.1745455,11.4285714 19.6254545,9.99285714 19.6254545,8.21428571 C19.6254545,6.43571429 18.1745455,5 16.3636364,5 C14.5527273,5 13.0909091,6.43571429 13.0909091,8.21428571 C13.0909091,9.99285714 14.5527273,11.4285714 16.3636364,11.4285714 L16.3636364,11.4285714 Z M7.63636364,11.4285714 C9.44727273,11.4285714 10.8981818,9.99285714 10.8981818,8.21428571 C10.8981818,6.43571429 9.44727273,5 7.63636364,5 C5.82545455,5 4.36363636,6.43571429 4.36363636,8.21428571 C4.36363636,9.99285714 5.82545455,11.4285714 7.63636364,11.4285714 L7.63636364,11.4285714 Z M7.63636364,13.5714286 C5.09454545,13.5714286 0,14.825 0,17.3214286 L0,20 L15.2727273,20 L15.2727273,17.3214286 C15.2727273,14.825 10.1781818,13.5714286 7.63636364,13.5714286 L7.63636364,13.5714286 Z M16.3636364,13.5714286 C16.0472727,13.5714286 15.6872727,13.5928571 15.3054545,13.625 C16.5709091,14.525 17.4545455,15.7357143 17.4545455,17.3214286 L17.4545455,20 L24,20 L24,17.3214286 C24,14.825 18.9054545,13.5714286 16.3636364,13.5714286 L16.3636364,13.5714286 Z"/>
  </defs>
  <use fill-rule="evenodd" xlink:href="#ic_users-a"/>
</svg>
