<svg xmlns="http://www.w3.org/2000/svg" xmlns:xlink="http://www.w3.org/1999/xlink" width="24" height="24" viewBox="0 0 24 24">
  <defs>
    <path id="ic_watch_later-a" d="M12,2 C6.5,2 2,6.5 2,12 C2,17.5 6.5,22 12,22 C17.5,22 22,17.5 22,12 C22,6.5 17.5,2 12,2 L12,2 Z M16.2,16.2 L11,13 L11,7 L12.5,7 L12.5,12.2 L17,14.9 L16.2,16.2 L16.2,16.2 Z"/>
  </defs>
  <use fill-rule="evenodd" xlink:href="#ic_watch_later-a"/>
</svg>
