<svg xmlns="http://www.w3.org/2000/svg" xmlns:xlink="http://www.w3.org/1999/xlink" width="24" height="24" viewBox="0 0 24 24">
  <defs>
    <path id="ic_wifi-a" d="M1,9 L3,11 C7.97,6.03 16.03,6.03 21,11 L23,9 C16.93,2.93 7.08,2.93 1,9 L1,9 Z M9,17 L12,20 L15,17 C13.35,15.34 10.66,15.34 9,17 L9,17 Z M5,13 L7,15 C9.76,12.24 14.24,12.24 17,15 L19,13 C15.14,9.14 8.87,9.14 5,13 L5,13 Z"/>
  </defs>
  <use fill-rule="evenodd" xlink:href="#ic_wifi-a"/>
</svg>
